<svg width="22" height="22" viewBox="0 0 22 22" fill="none" xmlns="http://www.w3.org/2000/svg">
<path d="M8.58926 7.29211C8.41528 7.12999 8.18516 7.04174 7.94739 7.04593C7.70962 7.05013 7.48276 7.14645 7.3146 7.3146C7.14645 7.48276 7.05013 7.70962 7.04593 7.94739C7.04174 8.18516 7.12999 8.41528 7.29211 8.58926L9.70285 11L7.29211 13.4107C7.20194 13.4948 7.12962 13.5961 7.07945 13.7087C7.02929 13.8213 7.00232 13.9428 7.00014 14.066C6.99797 14.1892 7.02064 14.3117 7.0668 14.4259C7.11296 14.5402 7.18166 14.644 7.26882 14.7312C7.35597 14.8183 7.45978 14.887 7.57406 14.9332C7.68834 14.9794 7.81075 15.002 7.93398 14.9999C8.05722 14.9977 8.17875 14.9707 8.29133 14.9205C8.40391 14.8704 8.50524 14.7981 8.58926 14.7079L11 12.2971L13.4107 14.7079C13.5847 14.87 13.8148 14.9583 14.0526 14.9541C14.2904 14.9499 14.5172 14.8536 14.6854 14.6854C14.8536 14.5172 14.9499 14.2904 14.9541 14.0526C14.9583 13.8148 14.87 13.5847 14.7079 13.4107L12.2971 11L14.7079 8.58926C14.7981 8.50524 14.8704 8.40391 14.9205 8.29133C14.9707 8.17875 14.9977 8.05722 14.9999 7.93398C15.002 7.81075 14.9794 7.68834 14.9332 7.57406C14.887 7.45978 14.8183 7.35597 14.7312 7.26882C14.644 7.18166 14.5402 7.11296 14.4259 7.0668C14.3117 7.02064 14.1892 6.99797 14.066 7.00014C13.9428 7.00232 13.8213 7.02929 13.7087 7.07945C13.5961 7.12962 13.4948 7.20194 13.4107 7.29211L11 9.70285L8.58926 7.29211Z" fill="#BF1D08"/>
<path fill-rule="evenodd" clip-rule="evenodd" d="M11 0.25C5.063 0.25 0.25 5.063 0.25 11C0.25 16.937 5.063 21.75 11 21.75C16.937 21.75 21.75 16.937 21.75 11C21.75 5.063 16.937 0.25 11 0.25ZM1.75 11C1.75 8.54675 2.72455 6.19397 4.45926 4.45926C6.19397 2.72455 8.54675 1.75 11 1.75C13.4533 1.75 15.806 2.72455 17.5407 4.45926C19.2754 6.19397 20.25 8.54675 20.25 11C20.25 13.4533 19.2754 15.806 17.5407 17.5407C15.806 19.2754 13.4533 20.25 11 20.25C8.54675 20.25 6.19397 19.2754 4.45926 17.5407C2.72455 15.806 1.75 13.4533 1.75 11Z" fill="#BF1D08"/>
</svg>
